Journal (reproducible report)
…
# 2.0 Importing Files ----

# A good convention is to use the file name and suffix it with tbl for the data structure tibble
bikes_tbl      <- read_excel(path = "~/R_scripts/DS_101/00_data/01_bike_sales/01_raw_data/bikes.xlsx")
orderlines_tbl <- read_excel("~/R_scripts/DS_101/00_data/01_bike_sales/01_raw_data/orderlines.xlsx")

# Not necessary for this analysis, but for the sake of completeness
bikeshops_tbl  <- read_excel("~/R_scripts/DS_101/00_data/01_bike_sales/01_raw_data/bikeshops.xlsx")

# 3.0 Examining Data ----

left_join(orderlines_tbl, bikes_tbl, by = c("product.id" = "bike.id"))

## # A tibble: 15,644 x 15
##    ...1  order.id order.line order.date          customer.id product.id quantity
##    <chr>    <dbl>      <dbl> <dttm>                    <dbl>      <dbl>    <dbl>
##  1 1            1          1 2015-01-07 00:00:00           2       2681        1
##  2 2            1          2 2015-01-07 00:00:00           2       2411        1
##  3 3            2          1 2015-01-10 00:00:00          10       2629        1
##  4 4            2          2 2015-01-10 00:00:00          10       2137        1
##  5 5            3          1 2015-01-10 00:00:00           6       2367        1
##  6 6            3          2 2015-01-10 00:00:00           6       1973        1
##  7 7            3          3 2015-01-10 00:00:00           6       2422        1
##  8 8            3          4 2015-01-10 00:00:00           6       2655        1
##  9 9            3          5 2015-01-10 00:00:00           6       2247        1
## 10 10           4          1 2015-01-11 00:00:00          22       2408        1
## # ... with 15,634 more rows, and 8 more variables: model <chr>,
## #   model.year <dbl>, frame.material <chr>, weight <dbl>, price <dbl>,
## #   category <chr>, gender <chr>, url <chr>
…
  # 4.4 Rename columns because we actually wanted underscores instead of the dots
  # (one at the time vs. multiple at once)
  rename(bikeshop = name) %>%
  set_names(names(.) %>% str_replace_all("\\.", "_"))

#Check location multiple features (State and city)
#bike_orderlines_wrangled_tbl$location

#Probably unecessary code but also helps to see just the location column
bike_orderlines_wrangled_tbl %>% 
  select(location) %>%
  filter(str_detect(location, "^Hamburg"))

## # A tibble: 975 x 1
##    location        
##    <chr>           
##  1 Hamburg, Hamburg
##  2 Hamburg, Hamburg
##  3 Hamburg, Hamburg
##  4 Hamburg, Hamburg
##  5 Hamburg, Hamburg
##  6 Hamburg, Hamburg
##  7 Hamburg, Hamburg
##  8 Hamburg, Hamburg
##  9 Hamburg, Hamburg
## 10 Hamburg, Hamburg
## # ... with 965 more rows
…
  # Group by and summarize year and state
  group_by(year, state) %>%
  summarise(sales = sum(total_price)) %>%
  ungroup() %>%
  
  # Format $ Text
  mutate(sales_text = scales::dollar(sales, big.mark = ".", 
                                     decimal.mark = ",", 
                                     prefix = "", 
                                     suffix = " €")) %>%
  arrange(desc(sales))

sales_by_year_by_state_tbl

## # A tibble: 60 x 4
##     year state                       sales sales_text        
##    <dbl> <chr>                       <dbl> <chr>             
##  1  2019 " North Rhine-Westphalia" 5189507 5.189.507 <U+20AC>
##  2  2017 " North Rhine-Westphalia" 4671541 4.671.541 <U+20AC>
##  3  2018 " North Rhine-Westphalia" 4601681 4.601.681 <U+20AC>
##  4  2015 " North Rhine-Westphalia" 3735092 3.735.092 <U+20AC>
##  5  2016 " North Rhine-Westphalia" 3002792 3.002.792 <U+20AC>
##  6  2019 " Bremen"                 2808838 2.808.838 <U+20AC>
##  7  2017 " Bremen"                 2557145 2.557.145 <U+20AC>
##  8  2016 " Bremen"                 2057760 2.057.760 <U+20AC>
##  9  2018 " Bremen"                 1833844 1.833.844 <U+20AC>
## 10  2019 " Bavaria"                1730872 1.730.872 <U+20AC>
## # ... with 50 more rows
…
## Rows: 315,910
## Columns: 4
## $ id           <chr> "org_004j997jM9yEdS7z4ReD", "org_004j997jM9yEdS7z4ReD", "org_005hVGA5JMOZs...
## $ type         <chr> "3", "3", "3", "2", "2", "3", "3", "2", "3", "3", "2", "2", "3", "2", "2",...
## $ organization <chr> "University of Basel", "University of Basel", "Zetkama Sp<U+00F3>lka Akcyjna", "M...
## $ patent_id    <chr> "8728438", "8921361", "8857791", "8845559", "8645286", "8815936", "8672803...

#Step2: Summarize data
patent_dominance_tbl %>%
  group_by(organization) %>%
  summarise(patent_dominance = n()) %>%
  ungroup() %>%
  arrange(desc(patent_dominance))

## # A tibble: 45,004 x 2
##    organization                                patent_dominance
##    <chr>                                                  <int>
##  1 International Business Machines Corporation             7547
##  2 Samsung Electronics Co., Ltd.                           5835
##  3 Canon Kabushiki Kaisha                                  4099
##  4 Sony Corporation                                        3326
##  5 Microsoft Corporation                                   3165
##  6 Google Inc.                                             2668
##  7 Kabushiki Kaisha Toshiba                                2656
##  8 QUALCOMM Incorporated                                   2597
##  9 LG Electronics Inc.                                     2459
## 10 <NA>                                                    2377
## # ... with 44,994 more rows
…
#Step2: Summarize data by organization and Year
recent_patent_activity_date_tbl <- recent_patent_activity_tbl %>%
  separate(col  = date,
           into = c("year", "month", "day"),
           sep  = "-", remove = FALSE)

recent_patent_activity_date_tbl %>%
  filter(month == 10) %>%
  group_by(organization) %>%
  summarise(recent_patent_activity = n()) %>%
  ungroup() %>%
  arrange(desc(recent_patent_activity))

## # A tibble: 8,115 x 2
##    organization                                recent_patent_activity
##    <chr>                                                        <int>
##  1 International Business Machines Corporation                    670
##  2 Samsung Electronics Co., Ltd.                                  551
##  3 Canon Kabushiki Kaisha                                         330
##  4 Sony Corporation                                               275
##  5 Kabushiki Kaisha Toshiba                                       249
##  6 Google Inc.                                                    244
##  7 LG Electronics Inc.                                            226
##  8 Microsoft Corporation                                          223
##  9 QUALCOMM Incorporated                                          219
## 10 <NA>                                                           204
## # ... with 8,105 more rows
…
top_10_patents <- innovation_in_tech_tbl %>%
  select(organization, patent_id, mainclass_id) %>%
  group_by(organization,mainclass_id) %>%
  summarise(top_10 = n()) %>%
  ungroup() %>%
  arrange(desc(top_10)) 

top_10_patents %>%
  select(organization,mainclass_id)%>%
  group_by(mainclass_id) %>%
  summarise(top_5_USPO = n()) %>%
  ungroup %>%
  arrange(desc(top_5_USPO))

## # A tibble: 604 x 2
##    mainclass_id top_5_USPO
##    <chr>             <int>
##  1 <NA>              16758
##  2 435                2474
##  3 514                2431
##  4 424                2295
##  5 705                1775
##  6 709                1759
##  7 455                1702
##  8 340                1667
##  9 428                1483
## 10 370                1452
## # ... with 594 more rows
…
